…
## 2.求小时IAQI及AQI：
```{r}
c('SO2', 'NO2', 'O3', 'CO') %>% set_names() %>% map_dfc(
  function(Pollu) sampleConc %>% rowwise %>% mutate(across(all_of(Pollu), ~ IAQI_hourly(Pollu,.x)),.keep = 'none')
) %>% rename_with(~paste0(.x,'_IAQI_h'))
# # A tibble: 24 x 4
# # Rowwise: 
#    SO2_IAQI_h NO2_IAQI_h O3_IAQI_h CO_IAQI_h
#         <dbl>      <dbl>     <dbl>     <dbl>
#  1       73.2       167.      171.      174.
#  2       75.0       161.      142.      170.
#  3       71.3       172.      155.      205.
#  4       71.3       150.      147.      139.
#  5       68.3       166.      168.      124.
#  6       73.2       152.      145.      167.
#  7       76.2       150.      168.      177.
#  8       75.5       162.      166.      185.
#  9       71.2       180.      185.      165.
# 10       74.0       163.      156.      151.
# # ... with 14 more rows
```
```{r}
sampleConc %>% rowwise %>% 
  mutate(AQI_h = AQI_Hourely(SO2 = SO2,NO2 = NO2,CO = CO,O3 = O3), .keep = 'none')
# # A tibble: 24 x 1
# # Rowwise: 
#    AQI_h
#    <dbl>
#  1  174.
#  2  170.
#  3  205.
#  4  150.
#  5  168.
#  6  167.
#  7  177.
#  8  185.
#  9  185.
# 10  163.
# # ... with 14 more rows
```
…
